<svg width="13" height="15" viewBox="0 0 13 15" fill="none" xmlns="http://www.w3.org/2000/svg">
<rect width="12.5035" height="15" fill="black" fill-opacity="0"/>
<path d="M1.56294 0C0.729371 0 0 0.7 0 1.5V13.5C0 14.3 0.729371 15 1.56294 15H10.9406C11.7741 15 12.5035 14.3 12.5035 13.5V4.5L7.81468 0H1.56294ZM2.08392 2H7.29371V5H10.4196V13H2.08392V2ZM3.12587 7V9H9.37762V7H3.12587ZM3.12587 10V12H7.29371V10H3.12587Z" fill="#B5BCC1"/>
</svg>
