<svg xmlns="http://www.w3.org/2000/svg" width="12" height="15" viewBox="0 0 12 15">
  <metadata><?xpacket begin="﻿" id="W5M0MpCehiHzreSzNTczkc9d"?>
<x:xmpmeta xmlns:x="adobe:ns:meta/" x:xmptk="Adobe XMP Core 5.6-c138 79.159824, 2016/09/14-01:09:01        ">
   <rdf:RDF xmlns:rdf="http://www.w3.org/1999/02/22-rdf-syntax-ns#">
      <rdf:Description rdf:about=""/>
   </rdf:RDF>
</x:xmpmeta>





















<?xpacket end="w"?></metadata>
<defs>
  </defs>
  <path id="Фигура_5" data-name="Фигура 5" class="__svg_icon" d="M3693.28,384.53l-1.06-1.06-2.47,2.469V378h-1.5v7.939l-2.47-2.469-1.06,1.06,4.28,4.28Zm0.22,5.47v1.5h-9V390H3683v1.5a1.5,1.5,0,0,0,1.5,1.5h9a1.5,1.5,0,0,0,1.5-1.5V390h-1.5Z" transform="translate(-3683 -378)"/>
</svg>
