<svg xmlns="http://www.w3.org/2000/svg" width="20.031" height="20" viewBox="0 0 20.031 20">
  <defs>
  </defs>
  <path id="Фигура_538" data-name="Фигура 538" class="__svg_icon" d="M1015.09,789.883a3.225,3.225,0,0,0-4.45,0L999.3,801.248a1.007,1.007,0,0,0-.188.262l-3.026,6.061a1,1,0,0,0,1.343,1.345l6.054-3.03a1.179,1.179,0,0,0,.26-0.189l11.35-11.365A3.238,3.238,0,0,0,1015.09,789.883Zm-12.65,14.281-3.223,1.613,1.613-3.225,9.01-9.025,1.61,1.613Zm11.23-11.249-0.8.807-1.61-1.613,0.8-.807a1.167,1.167,0,0,1,1.61,0A1.151,1.151,0,0,1,1013.67,792.915Z" transform="translate(-995.969 -789)"/>
</svg>
