<svg xmlns="http://www.w3.org/2000/svg" xmlns:xlink="http://www.w3.org/1999/xlink" width="17" height="17.031" viewBox="0 0 17 17.031">
  <defs>
    <style>
      .__percent_svg {
        fill-rule: evenodd;
      }
    </style>
    <filter id="filter" x="433" y="590.969" width="17" height="17.031" filterUnits="userSpaceOnUse">
      <feFlood result="flood" flood-color="#3199a5"/>
      <feComposite result="composite" operator="in" in2="SourceGraphic"/>
      <feBlend result="blend" in2="SourceGraphic"/>
    </filter>
  </defs>
  <path id="Фигура_2002" data-name="Фигура 2002" class="__percent_svg __svg_icon" d="M441.5,608.011A8.514,8.514,0,1,1,450,599.5,8.517,8.517,0,0,1,441.5,608.011Zm0-15.349a6.835,6.835,0,1,0,6.835,6.835A6.843,6.843,0,0,0,441.5,592.662Zm-3.9,6.27a1.984,1.984,0,0,1-.5-1.431,2.192,2.192,0,0,1,.233-1.038,1.635,1.635,0,0,1,.639-0.68,1.813,1.813,0,0,1,.931-0.237,1.721,1.721,0,0,1,1.308.529,2.276,2.276,0,0,1,0,2.857A1.883,1.883,0,0,1,437.6,598.932Zm5.467-3.3h1.45L439.7,602.69h-1.45Zm-3.735,2.619a1.864,1.864,0,0,0,0-1.511,0.5,0.5,0,0,0-.861,0,1.782,1.782,0,0,0,0,1.5A0.5,0.5,0,0,0,439.332,598.256Zm3.237,4a2.289,2.289,0,0,1,0-2.857,1.872,1.872,0,0,1,2.608,0,2.28,2.28,0,0,1,0,2.857A1.893,1.893,0,0,1,442.569,602.257Zm1.737-.676a1.853,1.853,0,0,0,0-1.511,0.508,0.508,0,0,0-.866,0,1.843,1.843,0,0,0,0,1.511A0.507,0.507,0,0,0,444.306,601.581Z" transform="translate(-433 -590.969)"/>
</svg>
