<svg xmlns="http://www.w3.org/2000/svg" width="17" height="15" viewBox="0 0 17 15">
  <path style="fill: #4599a6;" class="__svg_icon" d="M910.119,116.167h-1.214v4.166l3.465,2.117,0.582-1.008-2.833-1.734v-3.541m-0.4-4.167a7.4,7.4,0,0,0-7.286,7.5H900l3.206,3.358,3.27-3.358h-2.428a5.669,5.669,0,1,1,5.666,5.833,5.544,5.544,0,0,1-4-1.716l-1.149,1.183a7.1,7.1,0,0,0,5.148,2.2,7.5,7.5,0,0,0,0-15" transform="translate(-900 -112)"/>
</svg>
