<?xml version="1.0" encoding="utf-8"?>
<!-- Generator: Adobe Illustrator 21.0.1, SVG Export Plug-In . SVG Version: 6.00 Build 0)  -->
<svg version="1.1" id="Слой_1" xmlns="http://www.w3.org/2000/svg" xmlns:xlink="http://www.w3.org/1999/xlink" x="0px" y="0px"
	 viewBox="0 0 24 26" style="enable-background:new 0 0 22 26.8;" xml:space="preserve">
<g>
	<g>
		<path style="fill:#B4BCC1;" d="M15.5,1.9H4c-1.1,0-1.9,0.9-1.9,2l0,18c0,1.1,0.8,2,1.9,2h14.2c1.1,0,1.9-0.9,1.9-2l0-15.4L15.5,1.9z
			 M18.1,21.9L4,21.9l0-18l10.1,0v4l4,0L18.1,21.9z"/>
	</g>
</g>
<path style="fill:#B4BCC1;" d="M14.7,11.5c-0.1-0.9-0.4-1.2-0.9-1.7c-0.5-0.5-1.1-0.7-2-0.7H8.1v7.1h-1V18h1v1l1.9,0l0-1h2v-1.9h-2l0-1.1
	l2.2-0.1c0.8,0,1.8-0.7,2.1-1.3C14.8,12.9,14.8,12.2,14.7,11.5z M12.7,12.8C12.5,13,12.3,13,12,13h-1.9l0-2.1l1.8,0
	c0.3,0,0.7,0,0.9,0.2c0.2,0.2,0.3,0.5,0.3,0.9C13.1,12.8,12.9,12.6,12.7,12.8z"/>
</svg>
